…
    ## The following objects are masked from 'package:stats':
    ## 
    ##     filter, lag

    ## The following objects are masked from 'package:base':
    ## 
    ##     intersect, setdiff, setequal, union

``` r
(df <- tibble(number = 777:77))
```

    ## # A tibble: 701 x 1
    ##    number
    ##     <int>
    ##  1    777
    ##  2    776
    ##  3    775
    ##  4    774
    ##  5    773
    ##  6    772
    ##  7    771
    ##  8    770
    ##  9    769
    ## 10    768
    ## # … with 691 more rows

For each number, we `mutate()` to add a column with its Gematria score.

``` r
(df <- df %>% mutate(gematria_score = future_map_int(number, gematria)))
```

    ## # A tibble: 701 x 2
    ##    number gematria_score
    ##     <int>          <int>
    ##  1    777            314
    ##  2    776            301
    ##  3    775            291
    ##  4    774            309
    ##  5    773            305
    ##  6    772            307
    ##  7    771            283
    ##  8    770            249
    ##  9    769            278
    ## 10    768            285
    ## # … with 691 more rows

Finally, we `filter()` our results to only include those with a Gematria
score greater than the numerical value.

``` r
(df <- df %>% filter(gematria_score > number))
```

    ## # A tibble: 177 x 2
    ##    number gematria_score
    ##     <int>          <int>
    ##  1    279            284
    ##  2    278            291
    ##  3    277            307
    ##  4    276            294
    ##  5    275            284
    ##  6    274            302
    ##  7    273            298
    ##  8    272            300
    ##  9    271            276
    ## 10    269            271
    ## # … with 167 more rows
…
